C:\Users\nikhil.mudduluri\Documents\B-Pro\frontDesk\src\main\java\com\example\frontDesk\service\WardService.java
C:\Users\nikhil.mudduluri\Documents\B-Pro\frontDesk\src\main\java\com\example\frontDesk\repository\HospitalRepository.java
C:\Users\nikhil.mudduluri\Documents\B-Pro\frontDesk\src\main\java\com\example\frontDesk\DTO\LoginResponse.java
C:\Users\nikhil.mudduluri\Documents\B-Pro\frontDesk\src\main\java\com\example\frontDesk\controller\HospitalController.java
C:\Users\nikhil.mudduluri\Documents\B-Pro\frontDesk\src\main\java\com\example\frontDesk\domain\Doctor.java
C:\Users\nikhil.mudduluri\Documents\B-Pro\frontDesk\src\main\java\com\example\frontDesk\DTO\ResponseStatus.java
C:\Users\nikhil.mudduluri\Documents\B-Pro\frontDesk\src\main\java\com\example\frontDesk\domain\Ward.java
C:\Users\nikhil.mudduluri\Documents\B-Pro\frontDesk\src\main\java\com\example\frontDesk\controller\DoctorController.java
C:\Users\nikhil.mudduluri\Documents\B-Pro\frontDesk\src\main\java\com\example\frontDesk\messagebuilder\DoctorMessageBuilder.java
C:\Users\nikhil.mudduluri\Documents\B-Pro\frontDesk\src\main\java\com\example\frontDesk\messagebuilder\HospitalMessageBuilder.java
C:\Users\nikhil.mudduluri\Documents\B-Pro\frontDesk\src\main\java\com\example\frontDesk\domain\Hospital.java
C:\Users\nikhil.mudduluri\Documents\B-Pro\frontDesk\src\main\java\com\example\frontDesk\controller\WardController.java
C:\Users\nikhil.mudduluri\Documents\B-Pro\frontDesk\src\main\java\com\example\frontDesk\DTO\DoctorResponse.java
C:\Users\nikhil.mudduluri\Documents\B-Pro\frontDesk\src\main\java\com\example\frontDesk\repository\LoginRequestRepository.java
C:\Users\nikhil.mudduluri\Documents\B-Pro\frontDesk\src\main\java\com\example\frontDesk\repository\DoctorRepository.java
C:\Users\nikhil.mudduluri\Documents\B-Pro\frontDesk\src\main\java\com\example\frontDesk\repository\WardRepository.java
C:\Users\nikhil.mudduluri\Documents\B-Pro\frontDesk\src\main\java\com\example\frontDesk\service\DoctorServiceImpl.java
C:\Users\nikhil.mudduluri\Documents\B-Pro\frontDesk\src\main\java\com\example\frontDesk\DTO\DoctorRequestDTO.java
C:\Users\nikhil.mudduluri\Documents\B-Pro\frontDesk\src\main\java\com\example\frontDesk\controller\WelcomeController.java
C:\Users\nikhil.mudduluri\Documents\B-Pro\frontDesk\src\main\java\com\example\frontDesk\DTO\WardListDTO.java
C:\Users\nikhil.mudduluri\Documents\B-Pro\frontDesk\src\main\java\com\example\frontDesk\service\DoctorService.java
C:\Users\nikhil.mudduluri\Documents\B-Pro\frontDesk\src\main\java\com\example\frontDesk\domain\Appointment.java
C:\Users\nikhil.mudduluri\Documents\B-Pro\frontDesk\src\main\java\com\example\frontDesk\service\LoginService.java
C:\Users\nikhil.mudduluri\Documents\B-Pro\frontDesk\src\main\java\com\example\frontDesk\FrontDeskApplication.java
C:\Users\nikhil.mudduluri\Documents\B-Pro\frontDesk\src\main\java\com\example\frontDesk\domain\Patients.java
C:\Users\nikhil.mudduluri\Documents\B-Pro\frontDesk\src\main\java\com\example\frontDesk\DTO\HospitalDetailsDTO.java
C:\Users\nikhil.mudduluri\Documents\B-Pro\frontDesk\src\main\java\com\example\frontDesk\domain\LoginRequest.java
C:\Users\nikhil.mudduluri\Documents\B-Pro\frontDesk\src\main\java\com\example\frontDesk\configuration\DataBaseConfiguration.java
C:\Users\nikhil.mudduluri\Documents\B-Pro\frontDesk\src\main\java\com\example\frontDesk\service\WardServiceImpl.java
